government = monarchy
add_government_reform = feudalism_reform
government_rank = 1
primary_culture = arbarani
religion = regent_court
technology_group = tech_cannorian

capital = 253

1000.1.1 = { set_estate_privilege = estate_mages_organization_magisterium }

1433.6.16 = {
	monarch = {
		name = "Lain II"
		dynasty = "Derwing"
		birth_date = 1431.5.12
		adm = 2
		dip = 3
		mil = 0
	}
}