# No previous file for Banten
owner = F47
controller = F47
add_core = F47
culture = gold_dwarf
religion = ancestor_worship

hre = no

base_tax = 1
base_production = 2
base_manpower = 2

trade_goods = livestock

capital = ""

is_city = yes










