#383 - Tabouk

owner = F06
controller = F06
add_core = F06
culture = desha
religion = mother_akan

hre = no

base_tax = 3
base_production = 6
base_manpower = 4

trade_goods = iron

capital = ""

is_city = yes








