# No previous file for Huaiqing
owner = F28
controller = F28
add_core = F28
culture = east_sandfang_gnoll
religion = xhazobkult

hre = no

base_tax = 1
base_production = 1
base_manpower = 2

trade_goods = wool

capital = ""

is_city = yes









