blademarches_1 = {
	slot = 1
	generic = no
	ai = yes
	has_country_shield = yes
	
	potential = {
		tag = B33
	}
	
	B33_vernham_school_of_sword = {
		icon = mission_swear_fealty_knight
		required_missions = { B33_the_old_kingdom_of_devaced }
		ai = yes
		position = 3
		provinces_to_highlight = {
			province_id = 808 #Vernham
		}
		trigger = {
			808 = { #Vernham
				owned_by = ROOT
				has_building = training_fields
				has_building = university
				base_manpower = 15
			}
		}
		effect = {
			808 = { #Vernham
						add_permanent_province_modifier = { 		
							name = "blademarches_vernham_university"
							duration = -1
						}
			}
		
			define_advisor = {
				type = army_reformer
				skill = 3
				discount = yes
			}
		}
	}
	
	B33_vernham_officer_training_curriculum = {
		icon = mission_swear_fealty_knight
		required_missions = { B33_vernham_school_of_sword }
		ai = yes
		position = 4
		provinces_to_highlight = {
			province_id = 808 #Vernham
		}
		trigger = {
			808 = { #Vernham
				owned_by = ROOT
			}
			army_tradition = 50
			grand_captain = 3
			mil_power = 300
		}
		effect = {
			add_country_modifier = {						
				name = blademarches_vernham_curriculum 
				duration = -1
			}
			add_mil_power = -300
		}
	}
}






blademarches_2 = {
	slot = 2
	generic = no
	ai = yes
	has_country_shield = yes
	
	potential = {
		tag = B33
	}
	B33_the_old_kingdom_of_devaced = {
		icon = mission_swear_fealty_knight
		required_missions = { B33_a_worthy_wielder }
		ai = yes
		position = 2
		provinces_to_highlight = {
			OR = { 
				area = devaced_area
				area = oudeben_area
				area = vernham_area
			}
			NOT = {
				country_or_non_sovereign_subject_holds = ROOT
			}
		}
		trigger = {
			devaced_area = {
				type = all
				country_or_non_sovereign_subject_holds = ROOT
			}
			oudeben_area = {
				type = all
				country_or_non_sovereign_subject_holds = ROOT
			}
			vernham_area = {
				type = all
				country_or_non_sovereign_subject_holds = ROOT
			}
		}
		effect = {
			add_country_modifier = {
				name = "blademarches_surge_of_newcomers" 					
				duration = 7300 #20 years
			}
			oudmerewood_area = {
				limit = {
					NOT = { is_core = ROOT }
					NOT = { owned_by = ROOT }
				}
				add_permanent_claim = ROOT
			}
			area54_area = {
				limit = {
					NOT = { is_core = ROOT }
					NOT = { owned_by = ROOT }
				}
				add_permanent_claim = ROOT
			}
		}
	}
	
	B33_restore_old_vernham = {
		icon = mission_swear_fealty_knight
		required_missions = { B33_the_old_kingdom_of_devaced }
		ai = yes
		position = 3
		provinces_to_highlight = {
			province_id = 800 #Old Vernham
		}
		trigger = {
			800 = { #Old Vernham
				owned_by = ROOT
				development = 20
			}
		}
		effect = {
			800 = { #Old Vernham
				change_trade_goods = iron
				}
			dostans_way_area = {
				limit = {
					NOT = { is_core = ROOT }
					NOT = { owned_by = ROOT }
				}
				add_permanent_claim = ROOT
			}	
		}
	}

	B33_fortify_dostans_way = {
		icon = mission_swear_fealty_knight
		required_missions = { B33_restore_old_vernham }
		ai = yes
		position = 4
		provinces_to_highlight = {
			province_id = 803 #Dostan's Way
		}
		trigger = {
		803 = { #Dostan's Way
				owned_by = ROOT
				has_fort_building_trigger = yes
			}
		army_size = 30
		}
		effect = {
			dostanor_region = {
				limit = {
					NOT = { is_core = ROOT }
					NOT = { owned_by = ROOT }
				}
				add_permanent_claim = ROOT
			}
		}
	}
	B33_the_corvurian_campaigns = {
		icon = mission_swear_fealty_knight
		required_missions = { B33_fortify_dostans_way }
		ai = yes
		position = 6
		provinces_to_highlight = {
			OR = { 
				area = baldostan_area
			}
			NOT = {
				country_or_non_sovereign_subject_holds = ROOT
			}
		}
		trigger = {
			baldostan_area = {
				type = all
				country_or_non_sovereign_subject_holds = ROOT
			}
		}
		effect = {
			add_country_modifier = {
				name = "blademarches_corvurian_integration" 					
				duration = 3650 #10 years
			}
			add_prestige = 15
			
		}
	}
	B33_into_the_folly = {
		icon = mission_swear_fealty_knight
		required_missions = { B33_the_corvurian_campaigns }
		ai = yes
		position = 8
		provinces_to_highlight = {
			OR = { 
				region = daravans_folly_region
			}
			NOT = {
				country_or_non_sovereign_subject_holds = ROOT
			}
		}
		trigger = {
			adm_power = 300
			804 = { #Glademarch
				owned_by = ROOT
			}
		}
		effect = {
			daravans_folly_region = {
				limit = {
					NOT = { is_core = ROOT }
					NOT = { owned_by = ROOT }
				}
				add_permanent_claim = ROOT
			}
			add_country_modifier = {
				name = "blademarches_settling_the_folly" 					
				duration = 36500 #100 years
			}
			add_adm_power = -300
		}
	}
	B33_avenge_the_folly = {
		icon = mission_swear_fealty_knight
		required_missions = { B33_into_the_folly }
		ai = yes
		position = 9
		provinces_to_highlight = {
		OR = { 
			region = daravans_folly_region
			}
			NOT = {
				country_or_non_sovereign_subject_holds = ROOT
			}
		}
		trigger = {
			daravans_folly_region = {
				type = all
				country_or_non_sovereign_subject_holds = ROOT
			}
			philosopher = 3
		}
		effect = {
		446 = { #Dreadmire
				add_province_modifier = { 		
					name = "blademarches_grave_of_castan_the_steward"
					duration = -1
				}
				change_province_name = "Steward's Grave"
		}
		west_overmarch_area = {
				limit = {
					NOT = { is_core = ROOT }
					NOT = { owned_by = ROOT }
				}
				add_permanent_claim = ROOT
			}
		east_overmarch_area = {
				limit = {
					NOT = { is_core = ROOT }
					NOT = { owned_by = ROOT }
				}
				add_permanent_claim = ROOT
			}
		}
	}
	B33_southern_marches = {
		icon = mission_swear_fealty_knight
		required_missions = { B33_avenge_the_folly }
		ai = yes
		position = 11
		provinces_to_highlight = {
		OR = { 
			area = west_overmarch_area
			area = east_overmarch_area
			}
			NOT = {
				country_or_non_sovereign_subject_holds = ROOT
			}
		}
		trigger = {
			west_overmarch_area = {
				type = all
				country_or_non_sovereign_subject_holds = ROOT
			}
			east_overmarch_area = {
				type = all
				country_or_non_sovereign_subject_holds = ROOT
			}
		}
		effect = {
			510 = { #Bal Ourod
					add_permanent_province_modifier = { 		
						name = "blademarches_bal_ouord_fortifications"
						duration = -1
					}
				}
			}
	}
}



blademarches_3 = {
	slot = 3
	generic = no
	ai = yes
	has_country_shield = yes
	
	potential = {
		tag = B33
	}

	B33_a_worthy_wielder = {                                        
		icon = mission_swear_fealty_knight
		ai = yes
		position = 1

		trigger = {
			has_ruler_modifier = wielding_calindal
			stability = 3
			army_size_percentage = 1.0
		}
		effect = {
			devaced_area = {
				limit = {
					NOT = { is_core = ROOT }
					NOT = { owned_by = ROOT }
				}
				add_permanent_claim = ROOT
			}
			oudeben_area = {
				limit = {
					NOT = { is_core = ROOT }
					NOT = { owned_by = ROOT }
				}
				add_permanent_claim = ROOT
			}
			vernham_area = {
				limit = {
					NOT = { is_core = ROOT }
					NOT = { owned_by = ROOT }
				}
				add_permanent_claim = ROOT
			}
			area83_area = {
				limit = {
					NOT = { is_core = ROOT }
					NOT = { owned_by = ROOT }
				}
				add_permanent_claim = ROOT
			}
			humacvord_area = {
				limit = {
					NOT = { is_core = ROOT }
					NOT = { owned_by = ROOT }
				}
				add_permanent_claim = ROOT
			}
			blademarch_area = {
				limit = {
					NOT = { is_core = ROOT }
					NOT = { owned_by = ROOT }
				}
				add_permanent_claim = ROOT
			}
			banesfork_area = {
				limit = {
					NOT = { is_core = ROOT }
					NOT = { owned_by = ROOT }
				}
				add_permanent_claim = ROOT
			}
			clovenwood_area = {
				limit = {
					NOT = { is_core = ROOT }
					NOT = { owned_by = ROOT }
				}
				add_permanent_claim = ROOT
			}
			beastgrave_area = {
				limit = {
					NOT = { is_core = ROOT }
					NOT = { owned_by = ROOT }
				}
				add_permanent_claim = ROOT
			}
		}
	}

	B33_towards_trialmount = {
		icon = mission_swear_fealty_knight
		required_missions = { B33_a_worthy_wielder }
		ai = yes
		position = 2
		provinces_to_highlight = {
			OR = { 
			area = area83_area
			area = humacvord_area
			}
			NOT = {
				country_or_non_sovereign_subject_holds = ROOT
			}
		}
		trigger = {
			area83_area = {
				type = all
				country_or_non_sovereign_subject_holds = ROOT
			}
			humacvord_area = {
				type = all
				country_or_non_sovereign_subject_holds = ROOT
			}
		}
		effect = {
			burnoll_area = {
				limit = {
					NOT = { is_core = ROOT }
					NOT = { owned_by = ROOT }
				}
				add_permanent_claim = ROOT
			}
			themin_area = {
				limit = {
					NOT = { is_core = ROOT }
					NOT = { owned_by = ROOT }
				}
				add_permanent_claim = ROOT
			}
		}
	}

	B33_hegemon_of_south = {
		icon = mission_swear_fealty_knight
		required_missions = { 
			B33_towards_trialmount
			B33_attack_on_marrhold
			B33_fortify_dostans_way
			}
		ai = yes
		position = 5
		provinces_to_highlight = {
			OR = { 
			region = south_castanor_region
			}
			NOT = {
				country_or_non_sovereign_subject_holds = ROOT
			}
		}

		trigger = {
		num_of_owned_provinces_with = {
				value = 45
				region = south_castanor_region
				}
			}
		effect = {
		add_prestige = 100
		add_country_modifier = {
					name = "blademarches_hegemon_of_the_south"
					duration = 3650
					}
		}
	}
	B33_the_grand_army_of_blademarches = {
		icon = mission_swear_fealty_knight
		required_missions = { 
			B33_hegemon_of_south
			}
		ai = yes
		position = 7
		provinces_to_highlight = {
		}
		trigger = {
		army_size = 100
		grand_captain = 2
			}
		effect = {
		southgate_area = {
				limit = {
					NOT = { is_core = ROOT }
					NOT = { owned_by = ROOT }
				}
				add_permanent_claim = ROOT
			}
		castonath_area = {
				limit = {
					NOT = { is_core = ROOT }
					NOT = { owned_by = ROOT }
				}
				add_permanent_claim = ROOT
			}
		trialmount_area = {
				limit = {
					NOT = { is_core = ROOT }
					NOT = { owned_by = ROOT }
				}
				add_permanent_claim = ROOT
			}
		country_event = {id = flavor_blademarches.12}	
		}
	}
	B33_a_squanderer_redeemed = {
		icon = mission_swear_fealty_knight
		required_missions = { B33_the_grand_army_of_blademarches }
		ai = yes
		position = 8
		provinces_to_highlight = {
			OR = { 
				area = southgate_area
				area = castonath_area
				area = trialmount_area
			}
			NOT = {
				country_or_non_sovereign_subject_holds = ROOT
			}
		}

		trigger = {
			southgate_area = {
				type = all
				country_or_non_sovereign_subject_holds = ROOT
			}
			castonath_area = {
				type = all
				country_or_non_sovereign_subject_holds = ROOT
			}
			trialmount_area = {
				type = all
				country_or_non_sovereign_subject_holds = ROOT
			}
		}
		effect = {
			843 = { #Trialwood
					add_province_modifier = { 		
						name = "blademarches_grave_of_elecast"
						duration = -1
					}
			}
		}
	}

	B33_home_of_clarimonde = {
		icon = mission_swear_fealty_knight
		required_missions = { B33_a_squanderer_redeemed }
		ai = yes
		position = 9
		provinces_to_highlight = {
			OR = { 
				area = area75_area
			}
			NOT = {
				country_or_non_sovereign_subject_holds = ROOT
			}
		}
		trigger = {
			area75_area = {
				type = all
				country_or_non_sovereign_subject_holds = ROOT
			}
			has_ruler_modifier = wielding_calindal
			adm_power = 100
		}
		effect = {
			874 = { #Oldhaven
					add_province_modifier = { 		
						name = "blademarches_home_of_clarimonde"
						duration = -1
					}
			}
			add_adm_power = -100
		}
	}
	
	B33_the_stewards_war = {
		icon = mission_swear_fealty_knight
		required_missions = { B33_home_of_clarimonde }
		ai = yes
		position = 10
		provinces_to_highlight = {
		}
		trigger = {
			prestige = 100
			legitimacy = 100
			army_size = 100
			}
		effect = {
			inner_castanor_region = {
				limit = {
					NOT = { is_core = ROOT }
					NOT = { owned_by = ROOT }
				}
				add_permanent_claim = ROOT
			}
			west_castanor_region = {
				limit = {
					NOT = { is_core = ROOT }
					NOT = { owned_by = ROOT }
				}
				add_permanent_claim = ROOT
			}
			south_castanor_region = {
				limit = {
					NOT = { is_core = ROOT }
					NOT = { owned_by = ROOT }
				}
				add_permanent_claim = ROOT
			}
		}
	}
	
	B33_imperial_blademarches = {
		icon = mission_swear_fealty_knight
		required_missions = { B33_the_stewards_war }
		ai = yes
		position = 11
		provinces_to_highlight = {
		}
		trigger = {
			total_development = 1000
			has_ruler_modifier = wielding_calindal
			mil = 5
			dip = 5
			adm = 5
			major = yes
			}
		effect = {
			override_country_name = EMPIRE_OF_THE_BLADE
		}
	}
}



blademarches_4 = {
	slot = 4
	generic = no
	ai = yes
	has_country_shield = yes
	
	potential = {
		tag = B33
	}
	
	B33_blademarches_proper = {
		icon = mission_swear_fealty_knight
		required_missions = { B33_a_worthy_wielder }
		ai = yes
		position = 2
		provinces_to_highlight = {
		OR = { 
			area = blademarch_area
			area = banesfork_area
			area = clovenwood_area
			area = beastgrave_area
			}
			NOT = {
				country_or_non_sovereign_subject_holds = ROOT
			}
		}
		trigger = {
			blademarch_area = {
				type = all
				owned_by = ROOT
			}
			banesfork_area = {
				type = all
				owned_by = ROOT
			}
			clovenwood_area = {
				type = all
				country_or_non_sovereign_subject_holds = ROOT
			}
			beastgrave_area = {
				type = all
				country_or_non_sovereign_subject_holds = ROOT
			}
		}
		effect = {
			area82_area = {
				limit = {
					NOT = { is_core = ROOT }
					NOT = { owned_by = ROOT }
				}
				add_permanent_claim = ROOT
			}
			swapstoke_area = {
				limit = {
					NOT = { is_core = ROOT }
					NOT = { owned_by = ROOT }
				}
				add_permanent_claim = ROOT
			}
			817 = { #Bladeskeep
				move_capital_effect = yes
			}

		}
	}
	
	B33_the_eastern_marches = {
		icon = mission_swear_fealty_knight
		required_missions = { B33_blademarches_proper }
		ai = yes
		position = 3
		provinces_to_highlight = {
			OR = { 
				area = area82_area
				area = swapstoke_area
			}
			NOT = {
				country_or_non_sovereign_subject_holds = ROOT
			}
		}
		trigger = {
			area82_area = {
				type = all
				country_or_non_sovereign_subject_holds = ROOT
			}
			swapstoke_area = {
				type = all
				country_or_non_sovereign_subject_holds = ROOT
			}
		}
		effect = {
			dryadsdale_area = {
				limit = {
					NOT = { is_core = ROOT }
					NOT = { owned_by = ROOT }
				}
				add_permanent_claim = ROOT
			}
			hornwood_area = {
				limit = {
					NOT = { is_core = ROOT }
					NOT = { owned_by = ROOT }
				}
				add_permanent_claim = ROOT
			}
			doewood_area = {
				limit = {
					NOT = { is_core = ROOT }
					NOT = { owned_by = ROOT }
				}
				add_permanent_claim = ROOT
			}
			marrhold_area = {
				limit = {
					NOT = { is_core = ROOT }
					NOT = { owned_by = ROOT }
				}
				add_permanent_claim = ROOT
			}
			if = {
    				limit = { 4097 = { owned_by = B36 } }
    			ROOT = {
        			add_casus_belli = {
            		target = B36
            		type = cb_vassalize_mission
            		months = 120
        			}
    			}
			}
		}
	}

	B33_attack_on_marrhold = {
		icon = mission_swear_fealty_knight
		required_missions = { B33_the_eastern_marches }
		ai = yes
		position = 4
		provinces_to_highlight = {
			OR = { 
				area = marrhold_area
			}
			NOT = {
				country_or_non_sovereign_subject_holds = ROOT
			}
		}
		trigger = {
			marrhold_area = {
				type = all
				country_or_non_sovereign_subject_holds = ROOT
			}
		}
		effect = {
			area75_area = {
				limit = {
					NOT = { is_core = ROOT }
					NOT = { owned_by = ROOT }
				}
				add_permanent_claim = ROOT
			}
			add_country_modifier = {
				name = "blademarches_veteran_army" 					
				duration = 3650 #10 years
			}
		}
	}
	
	B33_prepare_the_deepwoods_expedition = {
		icon = mission_swear_fealty_knight
		required_missions = { B33_attack_on_marrhold }
		ai = yes
		position = 6
		provinces_to_highlight = {
			OR = { 
			province_id = 889 #Hornwood
			province_id = 813 #Banesfork
			}
		}
		trigger = {
			army_size = 50
			889 = { #Hornwood
				owned_by = ROOT
				has_fort_building_trigger = yes
			}
			813 = { #Banesfork
				owned_by = ROOT
				has_fort_building_trigger = yes
			}
		}
		effect = {
			west_deepwood = {
				limit = {
					NOT = { is_core = ROOT }
					NOT = { owned_by = ROOT }
				}
				add_claim = ROOT
			}
			east_deepwood = {
				limit = {
					NOT = { is_core = ROOT }
					NOT = { owned_by = ROOT }
				}
				add_claim = ROOT
			}
		}
	}
	B33_sword_upon_the_deepwoods = {
		icon = mission_swear_fealty_knight
		required_missions = { B33_prepare_the_deepwoods_expedition }
		ai = yes
		position = 8
		provinces_to_highlight = {
			OR = { 
				province_id = 3054 #Vyr Sélothyd
				province_id = 3068 #Vyr Trynn
			}
			NOT = {
				country_or_non_sovereign_subject_holds = ROOT
			}
		}
		trigger = {
			3054 = {
				type = all
				country_or_non_sovereign_subject_holds = ROOT
			}			
			3068 = {
				type = all
				country_or_non_sovereign_subject_holds = ROOT
				
			}
		}
		effect = {
			add_country_modifier = {
				name = "blademarches_army_enthusiasm" 					
				duration = 3650 #10 years
			}
			clirypriah_area = {
				limit = {
					NOT = { is_core = ROOT }
					NOT = { owned_by = ROOT }
				}
				add_permanent_claim = ROOT
			}
			prehnryn_area = {
				limit = {
					NOT = { is_core = ROOT }
					NOT = { owned_by = ROOT }
				}
				add_permanent_claim = ROOT
			}
		}
	}
	B33_triumph = {
		icon = mission_swear_fealty_knight
		required_missions = { B33_sword_upon_the_deepwoods}
		ai = yes
		position = 9
		provinces_to_highlight = {
			OR = { 
				superregion = deepwoods_superregion
			}
			NOT = {
				country_or_non_sovereign_subject_holds = ROOT
			}
		}
		trigger = {
			deepwoods_superregion = {
				type = all
				country_or_non_sovereign_subject_holds = ROOT
			}
		}
		effect = {
			country_event = { id = flavor_blademarches.13 }
		}
	}
	B33_deepwoods_troubles = {
		icon = mission_swear_fealty_knight
		required_missions = { B33_triumph}
		ai = yes
		position = 10
		provinces_to_highlight = {
		}
		trigger = {
			#Event tree after you conquer Deepwoods
			}
		effect = {
		}
	}
}









blademarches_5 = {
	slot = 5
	generic = no
	ai = yes
	has_country_shield = yes
	
	potential = {
		tag = B33
	}	
	B33_the_dragonfell_memorial = {
		icon = mission_swear_fealty_knight
		required_missions = { B33_blademarches_proper}
		ai = yes
		position = 3
		provinces_to_highlight = {
			province_id = 816 #Dragonfell
		}
		trigger = {
			816 = { #Dragonfell
				owned_by = ROOT
				development = 15
				has_building = temple
			}
			philosopher = 3
		}
		effect = {
		816 = { #Dragonfell
						add_province_modifier = { 		
							name = "blademarches_dragonfell_memorial"
							duration = -1
						}
			}
		}
	}
	B33_restore_the_stewards_hold = {
		icon = mission_swear_fealty_knight
		required_missions = { B33_the_dragonfell_memorial}
		ai = yes
		position = 4
		provinces_to_highlight = {
			province_id = 819 #Steward's Hold
		}
		trigger = {
			819 = { #Steward's Hold
				owned_by = ROOT
				development = 15
				has_building = temple
			}
			dip_power = 50
		}
		effect = {
			add_dip_power = -50
			819 = { #Steward's Hold
						add_province_modifier = { 		
							name = "blademarches_home_of_bladestewards"
							duration = -1
						}
			}
		}
	}
}